{
    "type": "FeatureCollection",
    "name": "COBERTURA HFC SOACHA",
    "crs": { "type": "name", "properties": { "name": "urn:ogc:def:crs:OGC:1.3:CRS84" } },
    "features": 
    [{"type":"Feature","properties":{"Name":"27912","description":null,"LATITUD":"4,57751706002485","NODO_NOMBR":"SOACHA","ANCHO_DE_B":"85 MHz (N)","TIPO_NODO":"DIGITAL","NEMOTECNIC":"BOSASOA-NOE27912","FABRICANTE":"ARRIS_OM2741","DIRECCION":"CR 9 E # 30-04","LONGITUD":"-74,2006175522164","FID":"6844","HOMME_PASS":"448","CODIGO_FEN":"27912","Field_1":"27912","CODIGO":"27912","ANCHO_DE1":"1000 MHz","MUNICIPIO":"SOACHA","FECHA_CAL":"27/09/2018"},"geometry":{"type":"MultiPolygon","coordinates":[[[[-74.20369872448573,4.577443093108398],[-74.20369594229415,4.576993832657385],[-74.20344270920302,4.576965572386408],[-74.20312396617115,4.5769656284162],[-74.20260452855193,4.576939675306726],[-74.20211573926409,4.576963453506264],[-74.20199765025451,4.57675494028398],[-74.20192680540147,4.576679171466741],[-74.20181663715603,4.576414951364806],[-74.20068873467439,4.576932321056294],[-74.2006341073865,4.576835659764852],[-74.20057074683501,4.576786114499852],[-74.2005056646884,4.576681587502058],[-74.20171079422003,4.576148560148164],[-74.20161036342424,4.575911558034285],[-74.20038739599879,4.57647334532233],[-74.20033069318968,4.576359592909419],[-74.20009694818357,4.576463899887614],[-74.20039930311466,4.57707036846737],[-74.19938647124717,4.577549102355813],[-74.19950934667173,4.577821549893174],[-74.19835954649677,4.578366682035318],[-74.19841913494278,4.578492551863162],[-74.19852963384608,4.578584682324566],[-74.20192767218366,4.577001919388796],[-74.20210156779213,4.577350771741663],[-74.20215258000219,4.577385940496315],[-74.20369872448573,4.577443093108398]]]]}},{"type":"Feature","properties":{"Name":"27903","description":null,"LATITUD":"4,59574436634632","NODO_NOMBR":"SOACHA","ANCHO_DE_B":"85 MHz (N)","TIPO_NODO":"DIGITAL","NEMOTECNIC":"BOSASOA-NOE27903","FABRICANTE":"ARRIS_OM2741","DIRECCION":"CR 10 # 52 -07","LONGITUD":"-74,1916403896067","FID":"6774","HOMME_PASS":"586","CODIGO_FEN":"27903","Field_1":"27903","CODIGO":"27903","ANCHO_DE1":"1000 MHz","MUNICIPIO":"SOACHA","FECHA_CAL":"27/09/2018"},"geometry":{"type":"MultiPolygon","coordinates":[[[[-74.18952089728545,4.594720933749201],[-74.18964220208328,4.594750123871894],[-74.1895946516102,4.594957489514513],[-74.18966602871528,4.59497538361356],[-74.1896422503349,4.595058945550321],[-74.19092532125325,4.595346674648207],[-74.19090154370949,4.595434667738867],[-74.19098040100846,4.595454007408912],[-74.19095959764306,4.595543537353604],[-74.19114092444819,4.595588271779624],[-74.1911135472543,4.595708458865299],[-74.19101603465667,4.595685324083065],[-74.19098938155258,4.595825496286903],[-74.1908971870457,4.595809142962464],[-74.19087935665085,4.595892703989236],[-74.19080050070511,4.595882226541423],[-74.19076340221774,4.596076206807934],[-74.19083622136846,4.596094100556578],[-74.19081992274423,4.596176124011928],[-74.19093293743988,4.596208932462306],[-74.19090762620033,4.596286526237747],[-74.190977579023,4.596414836604872],[-74.19096713557224,4.596480491130092],[-74.1907649020531,4.596443175326895],[-74.19074707209985,4.596529720570595],[-74.19067425337738,4.596514811035053],[-74.19063120765271,4.596713223353571],[-74.19070402639466,4.596728132892951],[-74.19068475523225,4.596819199910711],[-74.19078731429954,4.596840073158163],[-74.19074716205776,4.597099616336063],[-74.19064162878787,4.597077296661163],[-74.19061938341403,4.597166736392111],[-74.19055098071917,4.597153363470556],[-74.19052864475653,4.597239909423147],[-74.19045582619341,4.597226446762241],[-74.19040233873382,4.597502450466486],[-74.19046093792728,4.597639534479599],[-74.19042356648988,4.597818141507219],[-74.19074115899923,4.597891792303981],[-74.19083885425862,4.597928401295682],[-74.19314380325193,4.597705209015345],[-74.1931754948632,4.597516564950468],[-74.19300705580639,4.59747978689235],[-74.19314363933887,4.596688403655229],[-74.19288237566073,4.596639432445413],[-74.1928018157137,4.596681043715599],[-74.19255515217866,4.596637043723747],[-74.1926088149115,4.596335628752321],[-74.19233782086158,4.596301308721553],[-74.19225969376231,4.59634056833426],[-74.19213514583751,4.596320964868644],[-74.19216683961402,4.596144529012322],[-74.19205698117173,4.596125013599095],[-74.19224479629378,4.595039540835242],[-74.19212763836012,4.595019936172262],[-74.19214221924784,4.594904724810076],[-74.19212508293542,4.59481899903488],[-74.19213768655993,4.594737337869034],[-74.19229323834074,4.594776831156409],[-74.19243515028869,4.594054445938514],[-74.19215433063451,4.59399815267913],[-74.19205663504444,4.593956479719449],[-74.1918368279323,4.59391247513531],[-74.19187833371734,4.593667400620897],[-74.19162094845908,4.593631812072547],[-74.19162806003204,4.593582616500307],[-74.1916150813731,4.593572942466561],[-74.19155963645908,4.593435767594481],[-74.18946661653308,4.594534473660934],[-74.18952089728545,4.594720933749201]]]]}},{"type":"Feature","properties":{"Name":"27904","description":null,"LATITUD":"4,59634175275036","NODO_NOMBR":"SOACHA","ANCHO_DE_B":"85 MHz (N)","TIPO_NODO":"DIGITAL","NEMOTECNIC":"BOSASOA-NOE27904","FABRICANTE":"ARRIS_OM2741","DIRECCION":"KR 11 # 47 C - 28 SUR","LONGITUD":"-74,1944313873681","FID":"6775","HOMME_PASS":"579","CODIGO_FEN":"27904","Field_1":"27904","CODIGO":"27904","ANCHO_DE1":"1000 MHz","MUNICIPIO":"SOACHA","FECHA_CAL":"27/09/2018"},"geometry":{"type":"MultiPolygon","coordinates":[[[[-74.19239270227938,4.594042063741631],[-74.192262139622,4.594728998196778],[-74.19211695285605,4.594697732451304],[-74.19209831649495,4.594812221018127],[-74.19212113124343,4.59490382389206],[-74.19209627799073,4.595026633104445],[-74.19221037339373,4.59505573351407],[-74.19202174733044,4.596142382002267],[-74.19213376883806,4.596163163106025],[-74.19210684878686,4.596323411055638],[-74.19225969376231,4.59634056833426],[-74.1923143026065,4.596319217836597],[-74.19256943718429,4.596362945254618],[-74.19252379310622,4.596652241183709],[-74.19280596458694,4.596702113451643],[-74.19287021361568,4.5966646646451],[-74.19311705769228,4.596710382685534],[-74.19297407760125,4.597513884699484],[-74.19314215395652,4.597536826891795],[-74.19310478224766,4.597709556033512],[-74.19679676089396,4.597510180159041],[-74.19686396480084,4.59735905883743],[-74.19660809558184,4.597236386904287],[-74.19658143007518,4.597295533183314],[-74.19649463902489,4.597258651869809],[-74.19642010182956,4.597207389983815],[-74.19645794028378,4.597137028410823],[-74.1965257764304,4.596994136226806],[-74.19642006277927,4.596971817442107],[-74.19642564573894,4.596945048957627],[-74.19653460441647,4.596971798314574],[-74.19660361226374,4.596829991098575],[-74.1965324137807,4.596804411046222],[-74.19659240820049,4.596653652675567],[-74.19658240404648,4.596648138061416],[-74.19669031481158,4.596334415152513],[-74.19645995656376,4.596252975385643],[-74.19640435429672,4.59626076172517],[-74.1963977012091,4.596355715304111],[-74.1963331750927,4.596351204521749],[-74.19630878383877,4.596538762322505],[-74.19619748581484,4.596534259325487],[-74.19614973313969,4.596597930648364],[-74.19603735276442,4.596587911520469],[-74.19604734623019,4.596528768034119],[-74.19606068405868,4.596529850986027],[-74.19607183598067,4.596391489817632],[-74.19592719238597,4.596378039664253],[-74.19593492238425,4.596255323615416],[-74.19579369544752,4.596193944476063],[-74.19542439260002,4.59622855030007],[-74.19536299547876,4.596070668060333],[-74.19529351746812,4.596094372451135],[-74.1952843227121,4.596078548558761],[-74.19520421192281,4.596110122188965],[-74.19519636874885,4.596093032039195],[-74.1951123819684,4.59611936130558],[-74.1951031872308,4.596103627841712],[-74.19502181519091,4.59613782415671],[-74.19501261958122,4.596116755267049],[-74.19493395112629,4.596151041557232],[-74.1949234039381,4.59613123892209],[-74.19481184196563,4.596165530618431],[-74.19468976270608,4.595811332756437],[-74.19510709225706,4.595736206337453],[-74.19479003922827,4.595100167425989],[-74.19482860628987,4.595076287312718],[-74.19456718175732,4.594590625760491],[-74.19446326772771,4.594548863727151],[-74.19350408675376,4.594832159724217],[-74.1934564831956,4.594704026833445],[-74.19339115025674,4.594724836573664],[-74.19337041134635,4.594653399505285],[-74.19330507792789,4.594671225016756],[-74.1931059928912,4.594036522576901],[-74.19282979316309,4.594128987731549],[-74.19273780896783,4.59429883191092],[-74.1926765321664,4.594324433769588],[-74.1926734319788,4.594099170799144],[-74.19239270227938,4.594042063741631]]]]}},{"type":"Feature","properties":{"Name":"27905","description":null,"LATITUD":"4,59522883205067","NODO_NOMBR":"SOACHA","ANCHO_DE_B":"85 MHz (N)","TIPO_NODO":"DIGITAL","NEMOTECNIC":"BOSASOA-NOE27905","FABRICANTE":"ARRIS_OM2741","DIRECCION":"CL 45 # 10-31","LONGITUD":"-74,1965394520618","FID":"6785","HOMME_PASS":"523","CODIGO_FEN":"27905","Field_1":"27905","CODIGO":"27905","ANCHO_DE1":"1000 MHz","MUNICIPIO":"SOACHA","FECHA_CAL":"27/09/2018"},"geometry":{"type":"MultiPolygon","coordinates":[[[[-74.19455744703102,4.594579142630633],[-74.19482860628987,4.595076287312718],[-74.19479003922827,4.595100167425989],[-74.19510709225706,4.595736206337453],[-74.19468976270608,4.595811332756437],[-74.19482725783635,4.596199077954731],[-74.19491502730617,4.596158460011645],[-74.19492386245153,4.596179619392924],[-74.1949976651837,4.596149674590621],[-74.19500640963459,4.596167307179605],[-74.19508724136347,4.596135552590487],[-74.19509607563914,4.596151376544959],[-74.19518213369733,4.596116094276567],[-74.19518736350331,4.596133727443657],[-74.19527170958669,4.596100254065868],[-74.19528225642763,4.596117886353454],[-74.19537011771766,4.59608784875836],[-74.19542439260002,4.59622855030007],[-74.19579369544752,4.596193944476063],[-74.19593492238425,4.596255323615416],[-74.19592016523505,4.596391062885182],[-74.19604137793563,4.596405149954726],[-74.1960360795459,4.596518008628624],[-74.19601680770958,4.596600846560078],[-74.19614504945051,4.596613123823292],[-74.19619956140019,4.596551440855045],[-74.19632780196632,4.596556664473787],[-74.19635408642365,4.596373356610173],[-74.19640509507707,4.596380401712188],[-74.19641733375695,4.596274595490423],[-74.19646653739558,4.596265815478005],[-74.19667039993483,4.596343280713682],[-74.19656672449507,4.596655375155435],[-74.19657907230533,4.59666423532221],[-74.19651231907048,4.596815808699076],[-74.19657910097337,4.596836958376461],[-74.19652459928317,4.596960405690089],[-74.19641924513994,4.596932208835195],[-74.1964104231013,4.596990447820727],[-74.1965018064195,4.597004539786719],[-74.1963982048545,4.597219601812776],[-74.19649833679807,4.597276013988799],[-74.19659143682055,4.597316601914867],[-74.19661251537843,4.597260169497202],[-74.19674959656209,4.597318293646064],[-74.19727652683568,4.596253290752714],[-74.1972659599296,4.596115747099254],[-74.19783677834613,4.595061316840597],[-74.1977612541483,4.595034923758341],[-74.19784909392078,4.594878011283751],[-74.19765928197084,4.594751078291607],[-74.19761537955448,4.594664724159679],[-74.19747309458819,4.594742247422479],[-74.19688073630415,4.593622812005605],[-74.1967261958895,4.593703954407353],[-74.19666996783891,4.593740950057466],[-74.19599926809526,4.594075656287802],[-74.19591627123347,4.594091947645842],[-74.19556483808645,4.594278926666544],[-74.1955209571062,4.59432125560806],[-74.19498506601337,4.594605206821282],[-74.19491826560562,4.594469390567963],[-74.19455744703102,4.594579142630633]]]]}},{"type":"Feature","properties":{"Name":"27906","description":null,"LATITUD":"4,5930581366718","NODO_NOMBR":"SOACHA","ANCHO_DE_B":"85 MHz (N)","TIPO_NODO":"DIGITAL","NEMOTECNIC":"BOSASOA-NOE27906","FABRICANTE":"ARRIS_OM2741","DIRECCION":"CL 47 # 8-29","LONGITUD":"-74,1942999999036","FID":"6784","HOMME_PASS":"512","CODIGO_FEN":"27906","Field_1":"27906","CODIGO":"27906","ANCHO_DE1":"1000 MHz","MUNICIPIO":"SOACHA","FECHA_CAL":"11/10/2018"},"geometry":{"type":"MultiPolygon","coordinates":[[[[-74.19456718175732,4.594590625760491],[-74.19491042918756,4.594493446486633],[-74.19499074639765,4.594622839916702],[-74.19554060604676,4.594339519402762],[-74.19555519969938,4.594305334094447],[-74.19593483870526,4.594109940316542],[-74.19602729631094,4.594083066964705],[-74.19668177709276,4.593763103660915],[-74.19673286883287,4.593728912227617],[-74.19687641565008,4.593653197520797],[-74.19745822942319,4.594769017477511],[-74.19770152869566,4.594637037775549],[-74.19703451291338,4.593284484140124],[-74.19678878074012,4.593416373586793],[-74.19670602649457,4.593265006051396],[-74.1965697781471,4.593333394599148],[-74.19635315504324,4.592925587242077],[-74.19649913535595,4.59285231384218],[-74.19600990193345,4.591890391040014],[-74.19592716776134,4.591858663523464],[-74.1958127697548,4.591631519997002],[-74.19548422489179,4.591800137683425],[-74.19536739423096,4.591575436119014],[-74.19595383836229,4.591284784374192],[-74.19573036678072,4.590874174557612],[-74.19165786324477,4.59285138710289],[-74.19155963645908,4.593435767594481],[-74.1915952564523,4.593580722700518],[-74.19159274436139,4.593651440101345],[-74.19184102764468,4.593687210981352],[-74.191805289098,4.593930023795588],[-74.19204726619535,4.593978546374765],[-74.19215875073814,4.594024919527116],[-74.1926762303384,4.594128289109783],[-74.19268257389666,4.59434785440678],[-74.19273934444573,4.594320354226301],[-74.19285503042455,4.594153580863946],[-74.19309275168185,4.594075500458635],[-74.19329273903226,4.594717165937071],[-74.19335789134132,4.594693914599885],[-74.19337898874234,4.594753053002934],[-74.19345261190482,4.594727720368463],[-74.19348137910676,4.594846722800034],[-74.19446326772771,4.594548863727151],[-74.19456718175732,4.594590625760491]]]]}},{"type":"Feature","properties":{"Name":"27907","description":null,"LATITUD":"4,58998164925633","NODO_NOMBR":"SOACHA","ANCHO_DE_B":"85 MHz (N)","TIPO_NODO":"DIGITAL","NEMOTECNIC":"BOSASOA-NOE27907","FABRICANTE":"ARRIS_OM2741","DIRECCION":"DG 34 # 14-04","LONGITUD":"-74,2014280473464","FID":"6786","HOMME_PASS":"557","CODIGO_FEN":"27907","Field_1":"27907","CODIGO":"27907","ANCHO_DE1":"1000 MHz","MUNICIPIO":"SOACHA","FECHA_CAL":"11/10/2018"},"geometry":{"type":"MultiPolygon","coordinates":[[[[-74.2022487388654,4.591441422826001],[-74.20258247331542,4.591586686862067],[-74.20263066438423,4.591458176081026],[-74.2026328191643,4.591411875074973],[-74.20268524837063,4.591298194216683],[-74.20264955846969,4.59128128989803],[-74.2027564855168,4.591030687066763],[-74.20218148684191,4.590786533886638],[-74.2022318385948,4.590645452854036],[-74.20219830392054,4.590584417846661],[-74.20230522114878,4.59027693403089],[-74.20217507586459,4.590194845509714],[-74.20171553320657,4.590028623196337],[-74.20164207722873,4.589973834841799],[-74.20076696785287,4.589626550942904],[-74.20059068152868,4.589540219838538],[-74.20024235357184,4.589420277995775],[-74.20018564829002,4.58929820599419],[-74.20003242629723,4.589176060134008],[-74.19947001188095,4.588727619056498],[-74.1977284526213,4.589662879994242],[-74.19782087473902,4.589966079339951],[-74.19788801508427,4.58997872834614],[-74.1982279785608,4.590197604194787],[-74.20020486549765,4.591010060112803],[-74.2017578190344,4.591708912732204],[-74.20182015185385,4.591539796056926],[-74.20194199009303,4.59152756663799],[-74.20201360337505,4.591348681788518],[-74.2022487388654,4.591441422826001]]]]}},{"type":"Feature","properties":{"Name":"27908","description":null,"LATITUD":"4,58142252382358","NODO_NOMBR":"SOACHA","ANCHO_DE_B":"85 MHz (N)","TIPO_NODO":"DIGITAL","NEMOTECNIC":"BOSASOA-NOE27908","FABRICANTE":"ARRIS_OM2741","DIRECCION":"CR 3 E # 27-19 E","LONGITUD":"-74,2056364938413","FID":"6967","HOMME_PASS":"449","CODIGO_FEN":"27908","Field_1":"27908","CODIGO":"27908","ANCHO_DE1":"1000 MHz","MUNICIPIO":"SOACHA","FECHA_CAL":"28/09/2018"},"geometry":{"type":"MultiPolygon","coordinates":[[[[-74.20640807819899,4.580918232536034],[-74.20634406031213,4.580724721889829],[-74.20609047848473,4.580265378418959],[-74.20597602745829,4.580253009954614],[-74.20516017484925,4.580638482283539],[-74.20510725611422,4.580526086080401],[-74.20487837979682,4.580647123480811],[-74.2049399495373,4.580758252126242],[-74.20496329712395,4.580799032315062],[-74.20501134712337,4.580897864756547],[-74.20432101621007,4.581223991063117],[-74.20429387283977,4.581121447198195],[-74.20425574692027,4.58108564330889],[-74.20421139118153,4.580983192922465],[-74.20429266957268,4.580941218558695],[-74.20423479406892,4.580826381532562],[-74.20417450583251,4.580827567818966],[-74.20410428148034,4.580696726693195],[-74.20441073623847,4.580503964039026],[-74.20441685877323,4.580473126003219],[-74.20430354990711,4.580294092852941],[-74.20364280025514,4.580749077342568],[-74.20467016113976,4.582926653036097],[-74.2063542172782,4.582088237570115],[-74.20676483668973,4.58133243219288],[-74.20698386285837,4.581059924178342],[-74.20678808252046,4.580805939138705],[-74.20675715563229,4.580713072168817],[-74.20666567131096,4.580627631475657],[-74.20640807819899,4.580918232536034]]]]}},{"type":"Feature","properties":{"Name":"27909","description":null,"LATITUD":"4,58045059579138","NODO_NOMBR":"SOACHA","ANCHO_DE_B":"85 MHz (N)","TIPO_NODO":"DIGITAL","NEMOTECNIC":"BOSASOA-NOE27909","FABRICANTE":"ARRIS_OM2741","DIRECCION":"CL 25 I # 3-17 E","LONGITUD":"-74,207011239017","FID":"6969","HOMME_PASS":"529","CODIGO_FEN":"27909","Field_1":"27909","CODIGO":"27909","ANCHO_DE1":"1000 MHz","MUNICIPIO":"SOACHA","FECHA_CAL":"11/10/2018"},"geometry":{"type":"MultiPolygon","coordinates":[[[[-74.2069762046954,4.581069963398016],[-74.20752360146415,4.580706241307507],[-74.20779398752373,4.580398184358954],[-74.2080737174297,4.579935127002242],[-74.20779795545538,4.579417460251866],[-74.20763073426242,4.579118435621315],[-74.20743054497923,4.579399802634127],[-74.20732684283294,4.579525158732985],[-74.20731395374307,4.579512139019075],[-74.20729746530031,4.579528690871633],[-74.20728448609381,4.579515671173535],[-74.20726565587718,4.579539277062743],[-74.20724447453406,4.579518029637678],[-74.2067851525042,4.580046410308355],[-74.20657433523245,4.57986088412545],[-74.20614204399351,4.580368822127786],[-74.20634406031213,4.580724721889829],[-74.20640492631323,4.580930622141407],[-74.20666396190663,4.580643366765838],[-74.20674174621882,4.580716601760593],[-74.20677123217108,4.58081471398547],[-74.2069762046954,4.581069963398016]]]]}},{"type":"Feature","properties":{"Name":"27910","description":null,"LATITUD":"4,57941734236119","NODO_NOMBR":"SOACHA","ANCHO_DE_B":"85 MHz (N)","TIPO_NODO":"DIGITAL","NEMOTECNIC":"BOSASOA-NOE27910","FABRICANTE":"ARRIS_OM2741","DIRECCION":"CR 4 B E # 25 G - 04","LONGITUD":"-74,2064534988557","FID":"6821","HOMME_PASS":"540","CODIGO_FEN":"27910","Field_1":"27910","CODIGO":"27910","ANCHO_DE1":"1000 MHz","MUNICIPIO":"SOACHA","FECHA_CAL":"27/09/2018"},"geometry":{"type":"MultiPolygon","coordinates":[[[[-74.20369594229415,4.576993832657385],[-74.20369872448573,4.577443093108398],[-74.20510203172927,4.577487788391099],[-74.20519838191522,4.57757404231812],[-74.20511702163847,4.577660056659346],[-74.20539660611892,4.57789657407097],[-74.2054942182405,4.577984003331246],[-74.20565771536714,4.578124955892317],[-74.20571107193396,4.57816627326989],[-74.20582004147238,4.578268350259016],[-74.20585158695738,4.578293936554654],[-74.20592549344988,4.578353426845982],[-74.20597542887911,4.578413102296766],[-74.20627439181311,4.578664898691245],[-74.20585011742345,4.579150136911928],[-74.20590582710184,4.579247430597002],[-74.20599036944768,4.579317770679518],[-74.20588954993204,4.579438242788665],[-74.20650235018262,4.579964350098556],[-74.20657433926858,4.579883401426207],[-74.20678659780451,4.580065490972947],[-74.20724366765117,4.579541180101668],[-74.2072657498073,4.579560437882857],[-74.20728782414164,4.579536288819336],[-74.20730125349392,4.5795468668006],[-74.20731377751896,4.579534385059327],[-74.20733099213142,4.579546861402403],[-74.20743469377419,4.579418701944289],[-74.20763920831878,4.579135344662952],[-74.20736443933731,4.578623645977026],[-74.20705265147811,4.57871738895945],[-74.20662687594277,4.578366503499018],[-74.20657308492943,4.578415617203715],[-74.20541445269289,4.577408334238802],[-74.2055653970682,4.577400982331074],[-74.20554342096399,4.576963662238081],[-74.2053121835057,4.576975911755947],[-74.20514655493962,4.57701012421732],[-74.20493721367352,4.577010161530946],[-74.20476671014822,4.576995542063954],[-74.20425295570763,4.577002958161345],[-74.20369594229415,4.576993832657385]]]]}},{"type":"Feature","properties":{"Name":"27911","description":null,"LATITUD":"4,57939095811791","NODO_NOMBR":"SOACHA","ANCHO_DE_B":"85 MHz (N)","TIPO_NODO":"DIGITAL","NEMOTECNIC":"BOSASOA-NOE27911","FABRICANTE":"ARRIS_OM2741","DIRECCION":"KR 5 A ESTE # 25 H - 39","LONGITUD":"-74,2053257690949","FID":"6968","HOMME_PASS":"498","CODIGO_FEN":"27911","Field_1":"27911","CODIGO":"27911","ANCHO_DE1":"1000 MHz","MUNICIPIO":"SOACHA","FECHA_CAL":"11/10/2018"},"geometry":{"type":"MultiPolygon","coordinates":[[[[-74.2058552531438,4.579144800565166],[-74.2059106602404,4.579061322867487],[-74.20573364210874,4.578902467474332],[-74.20563512853276,4.578814314967258],[-74.20556906330268,4.578761062978011],[-74.20551498494314,4.578715133742962],[-74.20546234923327,4.578673544930449],[-74.20540700775595,4.578619205835581],[-74.20516347481177,4.578411167753205],[-74.20513373004967,4.578376357149747],[-74.20474932356247,4.57804969864678],[-74.2046218333711,4.578192692630227],[-74.20476703641849,4.578332382615078],[-74.2047865980106,4.578367556770181],[-74.20493144100931,4.578509236263836],[-74.20497893791364,4.57853897957967],[-74.20505131386302,4.578606880312248],[-74.2050216717026,4.578642605817969],[-74.20510053754745,4.578718734603251],[-74.2051830875614,4.578734816579168],[-74.20526114172253,4.578807237822269],[-74.20484020040377,4.579289761939777],[-74.20597602745829,4.580253009954614],[-74.20608561041298,4.580255612753908],[-74.20614916585295,4.580383380226159],[-74.20650235018262,4.579964350098556],[-74.20589784212173,4.5794461992221],[-74.20600857325502,4.579318671718148],[-74.20591880368305,4.579245890941233],[-74.2058552531438,4.579144800565166]]]]}},{"type":"Feature","properties":{"Name":"27914","description":null,"LATITUD":"4,57941655934467","NODO_NOMBR":"SOACHA","ANCHO_DE_B":"85 MHz (N)","TIPO_NODO":"DIGITAL","NEMOTECNIC":"BOSASOA-NOE27914","FABRICANTE":"ARRIS_OM2741","DIRECCION":"CR 7 E # 30 B-06","LONGITUD":"-74,2006341880745","FID":"6845","HOMME_PASS":"514","CODIGO_FEN":"27914","Field_1":"27914","CODIGO":"27914","ANCHO_DE1":"1000 MHz","MUNICIPIO":"SOACHA","FECHA_CAL":"27/09/2018"},"geometry":{"type":"MultiPolygon","coordinates":[[[[-74.20045396263176,4.579467774120182],[-74.20040305037624,4.579490661902166],[-74.20046101762821,4.579619244751127],[-74.20077865392794,4.579464191417699],[-74.2010666805084,4.580061257266858],[-74.20118778860184,4.580006616036434],[-74.201258010154,4.580124616273432],[-74.2011772881673,4.58025855847282],[-74.20141781207575,4.580788623035216],[-74.20153720591514,4.580721683432724],[-74.2016670508991,4.580640634768495],[-74.20194612237297,4.580515520254235],[-74.20201109293444,4.580492629914449],[-74.20202505653668,4.580466221647091],[-74.20234278509916,4.580323466213726],[-74.20226201751038,4.580193169321035],[-74.20224272510153,4.580150851005109],[-74.20262352999137,4.579976433614533],[-74.20252526315153,4.57975100645927],[-74.20249010494712,4.579678848711583],[-74.20219520207652,4.579449838607876],[-74.20189147402718,4.57925618841143],[-74.20146140051946,4.57905369775631],[-74.20119814504619,4.578916378720334],[-74.20116650095859,4.578840603055406],[-74.20093647645925,4.578572967170404],[-74.20074158265783,4.578217154973315],[-74.2005888682867,4.577887831728564],[-74.2000588444345,4.578145108365033],[-74.2000219928995,4.578182100938737],[-74.19988854108347,4.578249042690734],[-74.20017125161301,4.57885840847295],[-74.2002151491106,4.578920074853653],[-74.20045396263176,4.579467774120182]]]]}},{"type":"Feature","properties":{"Name":"27915","description":null,"LATITUD":"4,58709038097216","NODO_NOMBR":"SOACHA","ANCHO_DE_B":"85 MHz (N)","TIPO_NODO":"DIGITAL","NEMOTECNIC":"BOSASOA-NOE27915","FABRICANTE":"ARRIS_OM2741","DIRECCION":"CL 24 B # 12-38","LONGITUD":"-74,2095591696896","FID":"7167","HOMME_PASS":"570","CODIGO_FEN":"27915","Field_1":"27915","CODIGO":"27915","ANCHO_DE1":"1000 MHz","MUNICIPIO":"SOACHA","FECHA_CAL":"11/10/2018"},"geometry":{"type":"MultiPolygon","coordinates":[[[[-74.21067009207141,4.585833275425817],[-74.21070963818303,4.585748896021184],[-74.21068600806447,4.58564499532388],[-74.21057525679272,4.585664187319083],[-74.21058707790988,4.585748918870213],[-74.21055256444708,4.585757968390851],[-74.21050716308056,4.585855461358372],[-74.2101903086765,4.585855520298268],[-74.21007496706403,4.585905730869302],[-74.21001233984357,4.58593124400671],[-74.2100241592168,4.586006842047558],[-74.21001696438411,4.586086060852578],[-74.20993702428413,4.586056052622365],[-74.20991613135432,4.586134369657718],[-74.20954661769485,4.585969582540778],[-74.20951165253855,4.585972754086508],[-74.20947620879548,4.585823368783799],[-74.20928552072546,4.585830638468488],[-74.2092275101983,4.585969189316995],[-74.20906312135263,4.585893619382641],[-74.20898231875547,4.586074857798193],[-74.20869906359268,4.585994788109231],[-74.20877256784581,4.585819790797634],[-74.20874353410017,4.585733253755629],[-74.20874802287878,4.585639476079935],[-74.20877983680421,4.585652220990839],[-74.2088424394239,4.585491875482617],[-74.20872987493743,4.585451744850372],[-74.20862902330568,4.585398047413457],[-74.20860271653694,4.585439921753222],[-74.20847196770502,4.585506502889614],[-74.20792765249821,4.584990151561023],[-74.20636677762799,4.585800062852746],[-74.20830512574886,4.586806658623726],[-74.20927592435868,4.587066468965258],[-74.2102631530757,4.58747765623195],[-74.21044682282465,4.587526997322396],[-74.21081178226515,4.586453785817801],[-74.21079357120037,4.586414723069447],[-74.21067009207141,4.585833275425817]]]]}},{"type":"Feature","properties":{"Name":"27915","description":null,"LATITUD":"4,58709038097216","NODO_NOMBR":"SOACHA","ANCHO_DE_B":"85 MHz (N)","TIPO_NODO":"DIGITAL","NEMOTECNIC":"BOSASOA-NOE27915","FABRICANTE":"ARRIS_OM2741","DIRECCION":"CL 24 B # 12-38","LONGITUD":"-74,2095591696896","FID":"7272","HOMME_PASS":"570","CODIGO_FEN":"27915","Field_1":"27915","CODIGO":"27915","ANCHO_DE1":"1000 MHz","MUNICIPIO":"SOACHA","FECHA_CAL":"11/10/2018"},"geometry":{"type":"MultiPolygon","coordinates":[[[[-75.5019841098759,6.060178284484189],[-75.50193390914224,6.060216203326421],[-75.50203174188431,6.060297215205932],[-75.50208829902013,6.060238216607978],[-75.50205298622032,6.060202511287512],[-75.5019841098759,6.060178284484189]]]]}},{"type":"Feature","properties":{"Name":"27917","description":null,"LATITUD":"4,58131701563832","NODO_NOMBR":"SOACHA","ANCHO_DE_B":"85 MHz (N)","TIPO_NODO":"DIGITAL","NEMOTECNIC":"BOSASOA-NOE27917","FABRICANTE":"ARRIS_OM2741","DIRECCION":"CR 5 # 17 -13","LONGITUD":"-74,215229911867","FID":"7169","HOMME_PASS":"488","CODIGO_FEN":"27917","Field_1":"27917","CODIGO":"27917","ANCHO_DE1":"1000 MHz","MUNICIPIO":"SOACHA","FECHA_CAL":"11/10/2018"},"geometry":{"type":"MultiPolygon","coordinates":[[[[-74.21285438170989,4.58207039690693],[-74.21308280638677,4.582427284376439],[-74.21306018854885,4.582435970033139],[-74.21321195186025,4.582943349003172],[-74.21767313224582,4.582041434565572],[-74.21745139739994,4.58134063865679],[-74.21777084049478,4.581224462791846],[-74.21774477994227,4.5811389202874],[-74.2178503001646,4.58110263679463],[-74.21782567920938,4.581005428426176],[-74.21776070130609,4.580988078447029],[-74.21770857570264,4.580793752697438],[-74.2175015889072,4.580857637465223],[-74.21749230138349,4.580829605708877],[-74.21743102630602,4.580853401027612],[-74.2174042475945,4.58078187543634],[-74.21728394894508,4.580822140711448],[-74.21730847645462,4.580902619405565],[-74.2171369054128,4.580965231110584],[-74.2171480912279,4.581023375986685],[-74.21710573786515,4.581032336916334],[-74.21707894269768,4.58087580628058],[-74.21704332082533,4.580743874567384],[-74.21700322214213,4.580761787708528],[-74.21697643611839,4.580652281127527],[-74.2170165352344,4.580636628760145],[-74.2168872621645,4.580404065724399],[-74.21681596911871,4.580350454100605],[-74.21674910912009,4.580386277757303],[-74.21658006043538,4.579977201303067],[-74.21285438170989,4.58207039690693]]]]}},{"type":"Feature","properties":{"Name":"27918","description":null,"LATITUD":"4,5845446587118","NODO_NOMBR":"SOACHA","ANCHO_DE_B":"85 MHz (N)","TIPO_NODO":"DIGITAL","NEMOTECNIC":"BOSASOA-NOE27918","FABRICANTE":"ARRIS_OM2741","DIRECCION":"CR 8 A # 19 A-05","LONGITUD":"-74,2143735104416","FID":"7170","HOMME_PASS":"523","CODIGO_FEN":"27918","Field_1":"27918","CODIGO":"27918","ANCHO_DE1":"1000 MHz","MUNICIPIO":"SOACHA","FECHA_CAL":"19/10/2018"},"geometry":{"type":"MultiPolygon","coordinates":[[[[-74.21484671018935,4.582613235220088],[-74.21260088870511,4.583068802013451],[-74.21271115695947,4.583359064344003],[-74.2127390452282,4.583582242523336],[-74.21347357051688,4.583460383137096],[-74.2136037035269,4.583477630662827],[-74.21369067059351,4.5834967854421],[-74.21377889393209,4.583487544670223],[-74.21408502484353,4.584919821108105],[-74.21392696489445,4.584954395913129],[-74.21396304625097,4.585134979507902],[-74.21408190740149,4.585112982083888],[-74.21413049100676,4.58516632701688],[-74.21459322826657,4.585074722295472],[-74.21464683354998,4.584997212734828],[-74.21478398712132,4.58496770591925],[-74.21481275765642,4.58508806389935],[-74.21491035103271,4.585066341719175],[-74.21488482409892,4.584942727607646],[-74.215048110337,4.58490561952095],[-74.21517204041363,4.585471512124022],[-74.21556016201409,4.585389416395989],[-74.21652916592924,4.585220574846121],[-74.21631563421198,4.584532166077337],[-74.21661210570653,4.584451172768171],[-74.21663993259699,4.584350517778119],[-74.2165591272436,4.584040446016624],[-74.21680270352,4.583980352461055],[-74.21676507040816,4.583701018802392],[-74.21667738466708,4.583694072709824],[-74.21664527822395,4.583566933141229],[-74.2166981747951,4.583554352945627],[-74.21666201091502,4.583416091168917],[-74.21668704872022,4.583339220041153],[-74.2166522387854,4.58321217142865],[-74.21653950744474,4.583241492978677],[-74.21651019848169,4.58313397635879],[-74.21615388950372,4.583215071656459],[-74.21612187599403,4.583101948828583],[-74.21603419543104,4.583121498903409],[-74.21600074194463,4.583018142884085],[-74.21588520515397,4.582986062301948],[-74.21586293243439,4.582914807075019],[-74.2157668690842,4.582924592203714],[-74.21564440426164,4.58294975567479],[-74.21562907222636,4.582886909170703],[-74.21550931065138,4.582910625201868],[-74.21547449853578,4.582771006630309],[-74.21538825879792,4.58278494963201],[-74.21540079423977,4.582832513861394],[-74.21518506157541,4.582877228317447],[-74.21520174720304,4.582949841107587],[-74.21509595329262,4.582970841451868],[-74.2151126413176,4.58305602413742],[-74.21504172258338,4.583075570863112],[-74.21501668780617,4.583169171652975],[-74.21494847178873,4.583184558028665],[-74.2149233953742,4.583060220376439],[-74.21490384015404,4.583061671031001],[-74.2148662214203,4.582853506350732],[-74.21489127221216,4.582843734998797],[-74.21484671018935,4.582613235220088]]]]}},{"type":"Feature","properties":{"Name":"27921","description":null,"LATITUD":"4,57994536446121","NODO_NOMBR":"SOACHA","ANCHO_DE_B":"85 MHz (N)","TIPO_NODO":"DIGITAL","NEMOTECNIC":"BOSASOA-NOE27921","FABRICANTE":"ARRIS_OM2741","DIRECCION":"CR 5 A # 12-50","LONGITUD":"-74,219824269741","FID":"5682","HOMME_PASS":"488","CODIGO_FEN":"27921","Field_1":"27921","CODIGO":"27921","ANCHO_DE1":"1000 MHz","MUNICIPIO":"SOACHA","FECHA_CAL":"22/11/2018"},"geometry":{"type":"MultiPolygon","coordinates":[[[[-74.2198688297253,4.581525635035118],[-74.22020269222676,4.581414428919791],[-74.2202572401113,4.581550245202507],[-74.22028571575635,4.581543095476145],[-74.22030546060923,4.581589301708713],[-74.22034276654728,4.581576091347379],[-74.22036034794355,4.581619042499101],[-74.22041414446666,4.581601397725367],[-74.22048555434833,4.581787580613121],[-74.22070479199715,4.581698191022668],[-74.22075257524222,4.581804075999505],[-74.2209405497429,4.581752763999101],[-74.22090258432301,4.581622099007069],[-74.22108226698236,4.581565814936401],[-74.22102284703915,4.581402056560378],[-74.22111521227289,4.581377169520644],[-74.22104262269013,4.581150564334388],[-74.22136080382892,4.581036376617678],[-74.22137556057005,4.580923877643864],[-74.22140526848173,4.580769958321008],[-74.22143488396856,4.580604554294483],[-74.22142663865623,4.580381191699014],[-74.22139359694266,4.580086755425508],[-74.22151553232078,4.580121456333308],[-74.22164247684998,4.579969235596055],[-74.2216293041897,4.579891467700234],[-74.22188645020822,4.579651502720807],[-74.22181217917785,4.579578720859341],[-74.22170831665866,4.579340546888272],[-74.22158305534485,4.579347173588618],[-74.22158136099688,4.579436519634222],[-74.22132417528657,4.579477898311981],[-74.22128124453536,4.578850949677523],[-74.22140150570375,4.578625933470309],[-74.2215316839596,4.578422437795911],[-74.22163059092202,4.578215602457748],[-74.22160640233677,4.578029319722481],[-74.2215563040831,4.578062879668266],[-74.2212594371082,4.577500640174372],[-74.21748781701217,4.579549557357944],[-74.21757786738858,4.579670084101408],[-74.21774609894479,4.579582785321062],[-74.21775800517436,4.579638126690176],[-74.21813348266076,4.579431780095221],[-74.21817071791585,4.579518405562741],[-74.21835544001654,4.57942721487001],[-74.21841810792682,4.579614123167562],[-74.21859985643964,4.579524379892248],[-74.2186728913942,4.579729191434469],[-74.21887401858314,4.579657349579279],[-74.21894263702221,4.579857730850182],[-74.21904099560273,4.580065521558494],[-74.21953570252143,4.579883024377807],[-74.21965191951098,4.580167044681281],[-74.21906791340484,4.58038546069211],[-74.21909325367935,4.580473716215222],[-74.21899494320256,4.580511083631188],[-74.21903065869822,4.580659111915781],[-74.219136449203,4.580623189906866],[-74.21925277720474,4.581013466532435],[-74.21938388626702,4.580955112607425],[-74.21948973107077,4.581194371698977],[-74.21953145328496,4.581183873429207],[-74.21955975895038,4.581228721520599],[-74.21974448955146,4.581179309528956],[-74.21977282182404,4.581358718751271],[-74.21974750509169,4.5813901937345],[-74.21977735428318,4.581493278993737],[-74.21985331901912,4.581472374337973],[-74.2198688297253,4.581525635035118]]]]}},{"type":"Feature","properties":{"Name":"27922","description":null,"LATITUD":"4,58305394281133","NODO_NOMBR":"SOACHA","ANCHO_DE_B":"85 MHz (N)","TIPO_NODO":"DIGITAL","NEMOTECNIC":"BOSASOA-NOE27922","FABRICANTE":"ARRIS_OM2741","DIRECCION":"CL 12 # 8 A-26","LONGITUD":"-74,2206447731732","FID":"7258","HOMME_PASS":"461","CODIGO_FEN":"27922","Field_1":"27922","CODIGO":"27922","ANCHO_DE1":"1000 MHz","MUNICIPIO":"SOACHA","FECHA_CAL":"30/10/2018"},"geometry":{"type":"MultiPolygon","coordinates":[[[[-74.22229598348923,4.583889281588503],[-74.22207340083511,4.583030866484084],[-74.22200978075696,4.583045076997864],[-74.22189561367513,4.582654529170768],[-74.22184533085893,4.582668013527338],[-74.22180790929998,4.582554168624612],[-74.22177303090926,4.582539435435161],[-74.22149553956093,4.581539325993317],[-74.22157591657175,4.581501328832792],[-74.22152624818453,4.581432520949719],[-74.22146945057828,4.581313887089044],[-74.22131097182616,4.581050493859414],[-74.22102946643966,4.581154907657735],[-74.22107916269928,4.581363792992978],[-74.22098932193887,4.581394647958891],[-74.22104612753493,4.581553704457667],[-74.22085932622187,4.581613064596589],[-74.22090422590976,4.581719854450024],[-74.22076707635422,4.581765006956539],[-74.22072686467219,4.581667711396375],[-74.22050212862194,4.581750771932195],[-74.22043351259136,4.581565673657782],[-74.22037440035396,4.581589378363918],[-74.22035781030159,4.58154669830702],[-74.22031996385901,4.581560903516701],[-74.22030102887754,4.581508728685006],[-74.22026795725269,4.581515879329849],[-74.22022774328543,4.581406646863354],[-74.21936447644991,4.581694027167872],[-74.21950652407487,4.582266064686546],[-74.21932440667221,4.582315928260172],[-74.2194079276947,4.582682699312742],[-74.21956544641105,4.582649479886783],[-74.21961650344984,4.582905569970558],[-74.21970094138095,4.58289479189978],[-74.21979034672071,4.583395128120426],[-74.21959110660183,4.583444362162069],[-74.21962357908066,4.583597093446872],[-74.21969928632491,4.583640123479048],[-74.21976684175114,4.583930302695735],[-74.21992309851872,4.583894280078449],[-74.21995267846427,4.584002248639789],[-74.22022707435387,4.583940791317176],[-74.22024817448249,4.584004360002296],[-74.22008777188793,4.584038303608234],[-74.22009832572031,4.584089123650139],[-74.2199843340793,4.584125137878749],[-74.22002239687151,4.584292517824728],[-74.22000122132435,4.584303102460439],[-74.22002872775231,4.584406821179306],[-74.21990419062784,4.584434427429546],[-74.21992322432232,4.584529737770525],[-74.21979021736382,4.584563675850951],[-74.21996770738087,4.58526267107938],[-74.22023994217693,4.58520754433071],[-74.22026952727393,4.585340923943833],[-74.2198473431755,4.585429992180108],[-74.22015845466716,4.586918422117086],[-74.22249377267985,4.586477824745559],[-74.22308676196279,4.586099522272568],[-74.22348208326427,4.58552900376344],[-74.22327809865001,4.58484710636162],[-74.2232532899,4.58471689099355],[-74.22241300026518,4.584555914158995],[-74.22207311466879,4.583849175417648],[-74.22229598348923,4.583889281588503]]]]}},{"type":"Feature","properties":{"Name":"27902","description":null,"LATITUD":"4,59569374805289","NODO_NOMBR":"SOACHA","ANCHO_DE_B":"85 MHz (N)","TIPO_NODO":"DIGITAL","NEMOTECNIC":"BOSASOA-NOE27902","FABRICANTE":"ARRIS_OM2741","DIRECCION":"CL 55 # 10-31","LONGITUD":"-74,1892122107331","FID":"6773","HOMME_PASS":"478","CODIGO_FEN":"27902","Field_1":"27902","CODIGO":"27902","ANCHO_DE1":"1000 MHz","MUNICIPIO":"SOACHA","FECHA_CAL":"27/09/2018"},"geometry":{"type":"MultiPolygon","coordinates":[[[[-74.18845584465149,4.595137534857823],[-74.1884109051691,4.595331335379131],[-74.18879725780405,4.595408322320921],[-74.1887690767768,4.595577703888133],[-74.18913974687479,4.595642032755278],[-74.1890897786226,4.595949957955551],[-74.18905769878806,4.595966692703287],[-74.18907437548074,4.595996532304843],[-74.18906005728238,4.596065714220558],[-74.18893758063409,4.596035891171298],[-74.18892218378554,4.596123069011584],[-74.18877708757309,4.596095600675893],[-74.18873305053629,4.596297268563123],[-74.18880325565874,4.59631163612123],[-74.18878308337969,4.5964046927158],[-74.18897927893441,4.596442823907503],[-74.18896856364935,4.596500158803387],[-74.18884376290076,4.596593231759132],[-74.18882593299193,4.596681585579038],[-74.18872715872743,4.596658902837479],[-74.1887044617437,4.596743278452715],[-74.18863281465774,4.596728820679982],[-74.18861606658575,4.596819977685589],[-74.18811642737035,4.596704936834077],[-74.1880662730655,4.596978407803841],[-74.18806672494439,4.59698672738085],[-74.18796832791585,4.597073013767716],[-74.187928881256,4.597239412825576],[-74.19043933794565,4.597821665813469],[-74.19047805983153,4.59763455806278],[-74.19042378833058,4.597509952834674],[-74.19047682707972,4.59724597651512],[-74.19054919521938,4.597260524416551],[-74.19056486206317,4.597172170903053],[-74.19063723056772,4.597189070000063],[-74.1906601968804,4.597099539723203],[-74.19076032366456,4.597126110508857],[-74.19080966203099,4.596828313582427],[-74.19070836449237,4.596806535828324],[-74.19072646471434,4.596719357526453],[-74.19065040136466,4.596702459023939],[-74.19069020792578,4.596536602357404],[-74.19075897159763,4.596553502016486],[-74.1907795042711,4.596461530486496],[-74.19097732255287,4.596502645088004],[-74.19099542159087,4.596408232304574],[-74.19093150981392,4.596299273198812],[-74.19095555460626,4.596191475690199],[-74.19084218117825,4.596169699875174],[-74.19086262352631,4.596076552754471],[-74.19078908413698,4.596063180670046],[-74.19082402515467,4.595903383641266],[-74.19089765597633,4.59592516578551],[-74.19091449354374,4.595832019236615],[-74.19101101404641,4.595850090057565],[-74.19104361190699,4.595690293391741],[-74.1911135472543,4.595708458865299],[-74.19114488629673,4.595566839014803],[-74.19098203525063,4.595530511725603],[-74.19100013522488,4.595442157813074],[-74.19092767657068,4.595423992729127],[-74.19094703764515,4.595332021379183],[-74.18967054579194,4.595046552058197],[-74.18969107968401,4.594961724597974],[-74.18961627782897,4.594942384144946],[-74.18965725211976,4.594751116244453],[-74.18952089728545,4.594720933749201],[-74.18946661653308,4.594534473660934],[-74.18925674591682,4.594641034252745],[-74.1891710150262,4.594463079578844],[-74.18908414745233,4.594509122535228],[-74.18902383957713,4.594391662167876],[-74.18896959151698,4.594414730545011],[-74.18902872820345,4.594534542304994],[-74.18883805099428,4.594628982024484],[-74.18882966710474,4.594610806712807],[-74.18864511738305,4.594701628186539],[-74.18865593486149,4.594722244756626],[-74.18856663249635,4.594758521488103],[-74.18842074116748,4.594832426292487],[-74.1884134400282,4.594822751316776],[-74.18831332448066,4.594866354606579],[-74.18832062693158,4.59488453009258],[-74.18825187131452,4.594918452385828],[-74.18824339731704,4.594900277081123],[-74.18801901294313,4.594978986835892],[-74.18785131138375,4.595044394397601],[-74.18778741917176,4.595058873238963],[-74.18769207467103,4.595068654528221],[-74.18757511122372,4.595141288656378],[-74.18750866056037,4.595514688320569],[-74.1883686064983,4.595119010087994],[-74.18845584465149,4.595137534857823]]]]}},{"type":"Feature","properties":{"Name":"27913","description":null,"LATITUD":"4,57935982001929","NODO_NOMBR":"SOACHA","ANCHO_DE_B":"85 MHz (N)","TIPO_NODO":"DIGITAL","NEMOTECNIC":"BOSASOA-NOE27913","FABRICANTE":"ARRIS_OM2741","DIRECCION":"CR 7 C ESTE # 31-87","LONGITUD":"-74,1987459550058","FID":"6846","HOMME_PASS":"540","CODIGO_FEN":"27913","Field_1":"27913","CODIGO":"27913","ANCHO_DE1":"1000 MHz","MUNICIPIO":"SOACHA","FECHA_CAL":"26/09/2018"},"geometry":{"type":"MultiPolygon","coordinates":[[[[-74.19865176503083,4.579255116781114],[-74.19873272434103,4.579458120562787],[-74.19873272933425,4.579487781916013],[-74.1985569250433,4.579572183779864],[-74.19849781187636,4.579593987644596],[-74.19830173352761,4.579692409675404],[-74.19823477963632,4.579711140190616],[-74.19804969446577,4.579803320561529],[-74.1979936434309,4.579814272154054],[-74.19790344346767,4.579857965499941],[-74.19800928282267,4.58010780841065],[-74.1980590450272,4.580212428641072],[-74.19836866308323,4.580065606928947],[-74.19849009447276,4.580324761514671],[-74.19902850106148,4.580065495093243],[-74.19996122748121,4.579615713271205],[-74.20007099782613,4.579660909942158],[-74.20019075389907,4.579604641354352],[-74.19973161861955,4.57861006990052],[-74.19985137508559,4.578556966455249],[-74.19987786364102,4.578522598160693],[-74.20000383709127,4.578463253890859],[-74.19990890861985,4.578255550234713],[-74.2000271327643,4.57820090969735],[-74.2000692102052,4.5781587616635],[-74.2005950888714,4.577902570903984],[-74.20051882010829,4.577727690554429],[-74.20007539000615,4.577933858815474],[-74.19929269553035,4.578294721586913],[-74.19845872891723,4.578686790872562],[-74.19843693554236,4.578775778622586],[-74.19865176503083,4.579255116781114]]]]}},{"type":"Feature","properties":{"Name":"27916","description":null,"LATITUD":"4,58514327113245","NODO_NOMBR":"SOACHA","ANCHO_DE_B":"85 MHz (N)","TIPO_NODO":"DIGITAL","NEMOTECNIC":"BOSASOA-NOE27916","FABRICANTE":"ARRIS_OM2741","DIRECCION":"CR 8 # 25 A-20","LONGITUD":"-74,2092972903215","FID":"7168","HOMME_PASS":"529","CODIGO_FEN":"27916","Field_1":"27916","CODIGO":"27916","ANCHO_DE1":"1000 MHz","MUNICIPIO":"SOACHA","FECHA_CAL":"19/10/2018"},"geometry":{"type":"MultiPolygon","coordinates":[[[[-74.21068970614469,4.58566253822891],[-74.2106669795044,4.585571026395459],[-74.2106216508909,4.585574561650664],[-74.21057284860741,4.585312230700559],[-74.21064952783392,4.585252712877409],[-74.21061300213125,4.585101428786657],[-74.21059876410978,4.585104596521417],[-74.21056223757297,4.584948700451039],[-74.21051474846297,4.584964625134519],[-74.21050040857106,4.584904219961569],[-74.2103911007445,4.584931279145274],[-74.21033554033434,4.584672024078447],[-74.21048134343961,4.584632207353955],[-74.21045753207335,4.584522428668813],[-74.21044644348555,4.584500184730073],[-74.2104083829606,4.584333165931546],[-74.21047650750711,4.584309279495773],[-74.21045432179783,4.584218581427534],[-74.21051298544967,4.584202654668749],[-74.2104797046886,4.584054715903728],[-74.21061279520214,4.583983160274026],[-74.21062386847589,4.583922659935549],[-74.210807786455,4.5838574249617],[-74.2107665829584,4.583750814611553],[-74.21069359095237,4.583768371817577],[-74.21066347341396,4.583669717313633],[-74.21060010485765,4.583583819760264],[-74.20959125591689,4.584169366245002],[-74.20908862544101,4.584419862186801],[-74.20908269446284,4.584511650651981],[-74.20914331142954,4.584827876371026],[-74.20914819284859,4.584910167597584],[-74.20891830452035,4.584921423360962],[-74.20887498057643,4.585045683398552],[-74.20899384471954,4.585039150501815],[-74.20885251798708,4.585411751845175],[-74.20883800814408,4.585406961675327],[-74.2088075639257,4.585492424480537],[-74.20882198366894,4.585497305098424],[-74.20877217323874,4.585632779754382],[-74.20873846740076,4.5856231098416],[-74.20873046633494,4.585729548489689],[-74.20875454339833,4.585815001272364],[-74.20867581451425,4.586002117283411],[-74.2089925052855,4.586092399518306],[-74.209074391166,4.585921379594454],[-74.20923832769034,4.585987454364383],[-74.2092961582462,4.585850350442773],[-74.20946494695015,4.585839105842164],[-74.20949714566788,4.585984241492713],[-74.20953896036492,4.585984233762947],[-74.20992469636826,4.586155076746052],[-74.20994721070352,4.586072870881011],[-74.21002751167735,4.586105049384674],[-74.21003713675856,4.586009914289892],[-74.2100243266539,4.585937391083818],[-74.21019301509902,4.585871164341397],[-74.21051455654207,4.585875987795784],[-74.21056428130686,4.58576628585078],[-74.21060131883955,4.585761395680593],[-74.21058733467477,4.585675488931146],[-74.21068970614469,4.58566253822891]]]]}},{"type":"Feature","properties":{"Name":"27919","description":null,"LATITUD":"4,58493198165548","NODO_NOMBR":"SOACHA","ANCHO_DE_B":"85 MHz (N)","TIPO_NODO":"DIGITAL","NEMOTECNIC":"BOSASOA-NOE27919","FABRICANTE":"ARRIS_OM2741","DIRECCION":"CL 14 # 10-05","LONGITUD":"-74,2185193600595","FID":"7257","HOMME_PASS":"501","CODIGO_FEN":"27919","Field_1":"27919","CODIGO":"27919","ANCHO_DE1":"1000 MHz","MUNICIPIO":"SOACHA","FECHA_CAL":"30/10/2018"},"geometry":{"type":"MultiPolygon","coordinates":[[[[-74.21737019241182,4.586391671342903],[-74.21772154811164,4.586319800323705],[-74.21770458376685,4.586206041617007],[-74.21768933198472,4.586093910328909],[-74.21771645580445,4.586085404501804],[-74.21769776863248,4.585917297177384],[-74.21783987917522,4.585890140003778],[-74.21782129833184,4.585805229064956],[-74.21769775109107,4.585827318461679],[-74.21763641500121,4.585540122043098],[-74.21775626757726,4.585519118554297],[-74.2177770778026,4.585483303841238],[-74.21790666541548,4.585474235290875],[-74.21794545532062,4.585675255495772],[-74.21798115584046,4.585746236709703],[-74.21799531674013,4.585809716396704],[-74.2181472521784,4.585793228072918],[-74.21813379700035,4.585651977700158],[-74.21857167289477,4.58561861278403],[-74.21983896744858,4.585456399662291],[-74.21991186877219,4.585436399908845],[-74.2200136064521,4.585409702510862],[-74.22028340804802,4.585354214506264],[-74.22024804929201,4.585189999122679],[-74.21998266484954,4.585252178115332],[-74.21986306900044,4.584748411600335],[-74.2198055401039,4.584577508721694],[-74.21995594165315,4.584553062411041],[-74.21993159099435,4.58445766270037],[-74.22006207387913,4.584419927001572],[-74.22003330787739,4.584326698516225],[-74.22005096872955,4.584315571995669],[-74.22001560700343,4.584135802483722],[-74.22011509290093,4.584115887840464],[-74.220108502879,4.584058194261686],[-74.22027431220953,4.584022621814937],[-74.220249959322,4.583916099118071],[-74.21997132761281,4.583976019969054],[-74.21994922683372,4.583865065698648],[-74.21978774316476,4.583900637208038],[-74.21973019287239,4.5836210364137],[-74.21964169174231,4.583592206576848],[-74.21961733326651,4.583456836406675],[-74.21980756170638,4.583407965875952],[-74.21971238340271,4.582880139821439],[-74.21962389063454,4.582893179471775],[-74.21957797223332,4.582646945332257],[-74.2194079276947,4.582682699312742],[-74.21931592922316,4.582283374826858],[-74.21906163142009,4.582351790982338],[-74.21906848930706,4.582397366786026],[-74.2190071220629,4.582411124432213],[-74.21902083648078,4.582495403294135],[-74.21866659612014,4.582552444804632],[-74.21867111495834,4.582618548883909],[-74.21858253353564,4.582639003754507],[-74.2186052592098,4.58272102007433],[-74.21843269414349,4.582771243262941],[-74.21846678174376,4.5828897009904],[-74.21848949492264,4.582907963547062],[-74.21851683177414,4.583067478221433],[-74.21856900710158,4.583053722430194],[-74.21857126585353,4.58308338331203],[-74.21836923272151,4.583135873076276],[-74.2183919548123,4.58319962236545],[-74.21823975571228,4.583247490292151],[-74.2182965689885,4.583448054786752],[-74.21802415614283,4.583511862180911],[-74.21814004404528,4.583956216711175],[-74.21797198228714,4.583994954188987],[-74.21804242335011,4.584298064634186],[-74.21778812558762,4.58437100190202],[-74.21772905810855,4.58416365549667],[-74.21631563421198,4.584532166077337],[-74.21650077963889,4.585224740191229],[-74.21676391376194,4.585174409367238],[-74.21682212274575,4.585603040377987],[-74.21683233219763,4.585737961255346],[-74.21688928666184,4.585737950141847],[-74.21690643253808,4.585859124170108],[-74.21684039985223,4.585981399601807],[-74.21687116903658,4.586182602297162],[-74.21695659768142,4.586166579354577],[-74.21696913936042,4.58624543262871],[-74.21716396536013,4.586199726960376],[-74.21713319475889,4.585991651533992],[-74.21724475621576,4.585968750701222],[-74.21731658103924,4.585973348617755],[-74.21733137858385,4.586067032106604],[-74.21726072862246,4.586079615828125],[-74.21729266613882,4.586263726837211],[-74.21734285979717,4.586253407890085],[-74.21737019241182,4.586391671342903]]]]}},{"type":"Feature","properties":{"Name":"27920","description":null,"LATITUD":"4,58307754935324","NODO_NOMBR":"SOACHA","ANCHO_DE_B":"85 MHz (N)","TIPO_NODO":"DIGITAL","NEMOTECNIC":"BOSASOA-NOE27920","FABRICANTE":"ARRIS_OM2741","DIRECCION":"CR 8 # 14 - 59","LONGITUD":"-74,217889165443","FID":"6885","HOMME_PASS":"332","CODIGO_FEN":"27920","Field_1":"27920","CODIGO":"27920","ANCHO_DE1":"1000 MHz","MUNICIPIO":"SOACHA","FECHA_CAL":"13/12/2018"},"geometry":{"type":"MultiPolygon","coordinates":[[[[-74.2196776059599,4.580182593685803],[-74.21954407987783,4.579865117399278],[-74.21904261355103,4.580044360411613],[-74.2189644430102,4.579845789660117],[-74.2188875321641,4.579637090389515],[-74.21868586334018,4.579704139518346],[-74.21861517562733,4.579520759634177],[-74.21771013343718,4.580000402217809],[-74.2177252854199,4.580063610437533],[-74.21775811071801,4.580179988552354],[-74.21776316960808,4.580243289181317],[-74.2179031079351,4.580173629934343],[-74.21791826020329,4.58023819461229],[-74.2180089992593,4.58019259962067],[-74.21803161841038,4.580191329143201],[-74.21834681840826,4.580039433669675],[-74.21835187313852,4.580081211743218],[-74.21835692687877,4.580117925687262],[-74.21819553923184,4.580179902616921],[-74.21824224982683,4.58033299291384],[-74.21833299060621,4.580296260107893],[-74.2184490446684,4.580670711532143],[-74.21859015924389,4.580625106534101],[-74.21862802878994,4.580728823283048],[-74.2186078524651,4.580779468559809],[-74.2186520319646,4.580892046287772],[-74.21860157029751,4.580912312766373],[-74.21865964298283,4.581102025293355],[-74.21838732453513,4.581183014650956],[-74.21839237382655,4.58119694001179],[-74.21819953380167,4.581252683414911],[-74.2182462677075,4.581524599879879],[-74.21824628922636,4.58163465425933],[-74.21819456511088,4.581651122862241],[-74.21820845454266,4.581709267185556],[-74.21822737843588,4.581705465363188],[-74.21825136251438,4.581771294322972],[-74.21821982343214,4.581781428791333],[-74.21822739576245,4.581794087624022],[-74.21821099614198,4.581802953078931],[-74.21822993016872,4.581850968149639],[-74.21818577515107,4.581863637165011],[-74.21812404304664,4.581854787086015],[-74.21799923499,4.581877600211382],[-74.21796766824515,4.581746029481062],[-74.21793360562765,4.581754898400422],[-74.21789960128868,4.58160053956235],[-74.21753654230801,4.581722059456186],[-74.21763239784474,4.582034479374816],[-74.21483139093219,4.582616945830569],[-74.21487901516613,4.58283813063983],[-74.21485053959981,4.582846274893512],[-74.21489609405529,4.583082652487131],[-74.21491709143231,4.583082648449699],[-74.21494144378019,4.58319061825012],[-74.21502416819884,4.583172516156354],[-74.215047852682,4.583086602251871],[-74.21513129735114,4.58306497320273],[-74.21511262715411,4.582981961240786],[-74.21522121417101,4.582958156998137],[-74.21520534091361,4.582892416799671],[-74.21542044192687,4.582843361776612],[-74.21540601372226,4.582794260587751],[-74.21546575965635,4.582784120796448],[-74.21549669776002,4.582929165969861],[-74.21561609843474,4.582903189238245],[-74.21563341305385,4.582966035359385],[-74.21576569981583,4.582936348445422],[-74.21586356558664,4.582926924691417],[-74.21587790593354,4.582987601040482],[-74.21598010526662,4.583019322484941],[-74.21602473690619,4.58314130510121],[-74.21611250856488,4.583126819139451],[-74.21614416151716,4.583239489883203],[-74.21649875733257,4.583153511655493],[-74.2165246409906,4.583256688259772],[-74.21664332073694,4.583230711496486],[-74.21667073655648,4.58333461124326],[-74.21665128792543,4.583421247817547],[-74.216676454174,4.583542510730977],[-74.21662761340016,4.583557712630885],[-74.21666359835837,4.583702756759844],[-74.21674849050827,4.583709974691162],[-74.21678449771578,4.583969775597313],[-74.21653560560326,4.584035567326727],[-74.2166219981528,4.584345185848832],[-74.21659327267118,4.584459224783664],[-74.21770887276567,4.584168814018369],[-74.2177743413786,4.584390447247244],[-74.2180671186752,4.584313885178934],[-74.21799433242333,4.583999923492586],[-74.21815545479049,4.583959469189038],[-74.21804461524432,4.583524247187356],[-74.2183186498188,4.583458449986433],[-74.2182623767099,4.583255172461114],[-74.21842061527629,4.583215442117581],[-74.21839708072618,4.583144548950296],[-74.21859965479376,4.583093234672769],[-74.21857513095941,4.583032650826872],[-74.2185280019289,4.583044958728608],[-74.21850446476961,4.582960772226162],[-74.21850346100297,4.582897109086217],[-74.21848191889043,4.582876495096141],[-74.2184553157478,4.582782090506919],[-74.21863743464692,4.582738919034592],[-74.21861182538804,4.582657807594109],[-74.21870599265537,4.582630026715111],[-74.21868957939688,4.58256944126963],[-74.21905193063299,4.582513935466086],[-74.21903343998885,4.58242965755078],[-74.21909381581808,4.58241526708258],[-74.21908362529364,4.582378373303601],[-74.21951138903933,4.58225910054251],[-74.21936447644991,4.581694027167872],[-74.21988369809333,4.581520658375596],[-74.2198653017733,4.58145799344235],[-74.2197977170702,4.581474465318321],[-74.2197690439407,4.581394349268612],[-74.21979571296745,4.581365586941778],[-74.2197649405715,4.581151000594871],[-74.21957047810209,4.581204393484273],[-74.2195438843969,4.581158188589945],[-74.21950396510002,4.581171580290386],[-74.21939649697337,4.580926172223222],[-74.21926854387206,4.580993930336082],[-74.21914852458403,4.580621559758809],[-74.21904534660715,4.580653050139096],[-74.21901567201571,4.580520574771381],[-74.21912110121433,4.580480493016157],[-74.21909341888629,4.580397302087341],[-74.2196776059599,4.580182593685803]]]]}}]
}